<svg xmlns="http://www.w3.org/2000/svg" width="228" height="77" viewBox="0 0 228 77">
  <g id="btn_outline_light" transform="translate(-93 -366)">
    <g id="Rectangle_49" data-name="Rectangle 49" transform="translate(93 384)" fill="none" stroke="#007072" stroke-width="2">
      <rect width="228" height="59" rx="29.5" stroke="none"/>
      <rect x="1" y="1" width="226" height="57" rx="28.5" fill="none"/>
    </g>
    <text id="Aussteller" transform="translate(207 419)" fill="#007072" font-size="16" font-family="WorkSans-Medium, Work Sans" font-weight="500" letter-spacing="0.2em"><tspan x="-65.44" y="0">AUSSTELLER</tspan></text>
    <rect id="Rectangle_50" data-name="Rectangle 50" width="30" height="32" transform="translate(192 366)" fill="#f5f5f5"/>
    <g id="Group_59" data-name="Group 59" transform="translate(-1851.766 -467)">
      <g id="Path_110" data-name="Path 110" transform="translate(2051.315 826)" fill="none">
        <path d="M1.487,11h11.4a1.534,1.534,0,0,1,1.487,1.578V30.462a1.534,1.534,0,0,1-1.487,1.578H1.487A1.534,1.534,0,0,1,0,30.462V12.578A1.534,1.534,0,0,1,1.487,11Z" stroke="none"/>
        <path d="M 2.000001907348633 13 L 2.000001907348633 30.0405387878418 L 12.37170219421387 30.0405387878418 L 12.37170219421387 13 L 2.000001907348633 13 M 1.486732482910156 11 L 12.88497161865234 11 C 13.7060718536377 11 14.37170219421387 11.70650863647461 14.37170219421387 12.57803916931152 L 14.37170219421387 30.46249008178711 C 14.37170219421387 31.33401870727539 13.7060718536377 32.0405387878418 12.88497161865234 32.0405387878418 L 1.486732482910156 32.0405387878418 C 0.6656322479248047 32.0405387878418 1.9073486328125e-06 31.33401870727539 1.9073486328125e-06 30.46249008178711 L 1.9073486328125e-06 12.57803916931152 C 1.9073486328125e-06 11.70650863647461 0.6656322479248047 11 1.486732482910156 11 Z" stroke="none" fill="#007072"/>
      </g>
      <rect id="Rectangle_53" data-name="Rectangle 53" width="8.495" height="1.942" rx="0.971" transform="translate(2054.158 860.058)" fill="#007072"/>
    </g>
  </g>
</svg>
