<svg xmlns="http://www.w3.org/2000/svg" width="216" height="240" viewBox="0 0 216 240">
  <g id="Group_122" data-name="Group 122" transform="translate(-80 -310)">
    <circle id="Ellipse_21" data-name="Ellipse 21" cx="108" cy="108" r="108" transform="translate(80 310)" fill="#d5e1e2"/>
    <path id="audio" d="M121.3,59.565h-3.559a3.547,3.547,0,0,1-3.543-3.543v-7.8a13.272,13.272,0,0,0-26.545,0v39.55a5.95,5.95,0,1,1-11.9,0v-74.5a13.272,13.272,0,0,0-26.545,0v74.5a5.95,5.95,0,1,1-11.9,0V48.224a13.272,13.272,0,0,0-26.545,0v7.8a3.547,3.547,0,0,1-3.544,3.543H3.661a3.661,3.661,0,0,0,0,7.322H7.22A10.882,10.882,0,0,0,18.085,56.022v-7.8a5.95,5.95,0,0,1,11.9,0V87.774a13.272,13.272,0,0,0,26.545,0v-74.5a5.95,5.95,0,0,1,11.9,0v74.5a13.272,13.272,0,1,0,26.545,0V48.224a5.95,5.95,0,0,1,11.9,0v7.8a10.882,10.882,0,0,0,10.865,10.865H121.3a3.661,3.661,0,1,0,0-7.322Zm0,0" transform="translate(125.263 362.037)" fill="#7bb0b1"/>
    <g id="Group_72" data-name="Group 72" transform="translate(-44.425 -202.243)">
      <circle id="Ellipse_8" data-name="Ellipse 8" cx="28.5" cy="28.5" r="28.5" transform="translate(203.425 695.243)" fill="#007072"/>
      <path id="Icon_ionic-ios-play" data-name="Icon ionic-ios-play" d="M9,7.605V38.891a.806.806,0,0,0,1.206.742l24.8-15.643a.886.886,0,0,0,0-1.475L10.206,6.873A.8.8,0,0,0,9,7.605Z" transform="translate(214.035 700.951)" fill="#c5dcdd"/>
    </g>
  </g>
</svg>
