<svg id="icon_more" xmlns="http://www.w3.org/2000/svg" width="6" height="25" viewBox="0 0 6 25">
  <rect id="Rectangle_37" data-name="Rectangle 37" width="6" height="6" rx="3" fill="#444d4d"/>
  <rect id="Rectangle_38" data-name="Rectangle 38" width="6" height="6" rx="3" transform="translate(0 9)" fill="#444d4d"/>
  <rect id="Rectangle_39" data-name="Rectangle 39" width="6" height="6" rx="3" transform="translate(0 19)" fill="#444d4d"/>
</svg>
